{
    "name": "Global Price of Cotton",
    "interval": "monthly",
    "unit": "cents per pound",
    "data": [
        {
            "date": "2023-01-01",
            "value": "100.311363636364"
        },
        {
            "date": "2022-12-01",
            "value": "100.886363636364"
        },
        {
            "date": "2022-11-01",
            "value": "101.165909090909"
        },
        {
            "date": "2022-10-01",
            "value": "100.27619047619"
        },
        {
            "date": "2022-09-01",
            "value": "117.940909090909"
        },
        {
            "date": "2022-08-01",
            "value": "124.758695652174"
        },
        {
            "date": "2022-07-01",
            "value": "131.035714285714"
        },
        {
            "date": "2022-06-01",
            "value": "154.445454545455"
        },
        {
            "date": "2022-05-01",
            "value": "163.979545454545"
        },
        {
            "date": "2022-04-01",
            "value": "155.315789473684"
        },
        {
            "date": "2022-03-01",
            "value": "141.126086956522"
        },
        {
            "date": "2022-02-01",
            "value": "138.405"
        },
        {
            "date": "2022-01-01",
            "value": "132.3325"
        },
        {
            "date": "2021-12-01",
            "value": "120.040476190476"
        },
        {
            "date": "2021-11-01",
            "value": "126.543181818182"
        },
        {
            "date": "2021-10-01",
            "value": "117.383333333333"
        },
        {
            "date": "2021-09-01",
            "value": "103.681818181818"
        },
        {
            "date": "2021-08-01",
            "value": "101.304761904762"
        },
        {
            "date": "2021-07-01",
            "value": "97.7"
        },
        {
            "date": "2021-06-01",
            "value": "94.5045454545455"
        },
        {
            "date": "2021-05-01",
            "value": "90.8868421052632"
        },
        {
            "date": "2021-04-01",
            "value": "90.73"
        },
        {
            "date": "2021-03-01",
            "value": "91.4521739130435"
        },
        {
            "date": "2021-02-01",
            "value": "92.76"
        },
        {
            "date": "2021-01-01",
            "value": "87.235"
        },
        {
            "date": "2020-12-01",
            "value": "81.0214285714286"
        },
        {
            "date": "2020-11-01",
            "value": "77.7238095238095"
        },
        {
            "date": "2020-10-01",
            "value": "74.8159090909091"
        },
        {
            "date": "2020-09-01",
            "value": "70.8136363636363"
        },
        {
            "date": "2020-08-01",
            "value": "70"
        },
        {
            "date": "2020-07-01",
            "value": "68.5239130434783"
        },
        {
            "date": "2020-06-01",
            "value": "67.8"
        },
        {
            "date": "2020-05-01",
            "value": "65.7026315789474"
        },
        {
            "date": "2020-04-01",
            "value": "63.5325"
        },
        {
            "date": "2020-03-01",
            "value": "67.6863636363636"
        },
        {
            "date": "2020-02-01",
            "value": "76.5675"
        },
        {
            "date": "2020-01-01",
            "value": "79.0681818181818"
        },
        {
            "date": "2019-12-01",
            "value": "75.83"
        },
        {
            "date": "2019-11-01",
            "value": "74.8571428571428"
        },
        {
            "date": "2019-10-01",
            "value": "73.8847826086957"
        },
        {
            "date": "2019-09-01",
            "value": "71.3119047619048"
        },
        {
            "date": "2019-08-01",
            "value": "70.7761904761905"
        },
        {
            "date": "2019-07-01",
            "value": "75.5391304347826"
        },
        {
            "date": "2019-06-01",
            "value": "77.65"
        },
        {
            "date": "2019-05-01",
            "value": "80.1380952380952"
        },
        {
            "date": "2019-04-01",
            "value": "87.2475"
        },
        {
            "date": "2019-03-01",
            "value": "83.8095238095238"
        },
        {
            "date": "2019-02-01",
            "value": "81.15"
        },
        {
            "date": "2019-01-01",
            "value": "82.3545454545454"
        },
        {
            "date": "2018-12-01",
            "value": "85.9973684210526"
        },
        {
            "date": "2018-11-01",
            "value": "86.775"
        },
        {
            "date": "2018-10-01",
            "value": "86.8"
        },
        {
            "date": "2018-09-01",
            "value": "90.355"
        },
        {
            "date": "2018-08-01",
            "value": "94.5522727272727"
        },
        {
            "date": "2018-07-01",
            "value": "96.1795454545455"
        },
        {
            "date": "2018-06-01",
            "value": "97.7071428571429"
        },
        {
            "date": "2018-05-01",
            "value": "94.4785714285715"
        },
        {
            "date": "2018-04-01",
            "value": "92.2375"
        },
        {
            "date": "2018-03-01",
            "value": "92.1357142857143"
        },
        {
            "date": "2018-02-01",
            "value": "88.2675"
        },
        {
            "date": "2018-01-01",
            "value": "91.0568181818182"
        },
        {
            "date": "2017-12-01",
            "value": "85.4236842105263"
        },
        {
            "date": "2017-11-01",
            "value": "80.4113636363636"
        },
        {
            "date": "2017-10-01",
            "value": "78.6045454545454"
        },
        {
            "date": "2017-09-01",
            "value": "80.6047619047619"
        },
        {
            "date": "2017-08-01",
            "value": "79.3409090909091"
        },
        {
            "date": "2017-07-01",
            "value": "84.0880952380952"
        },
        {
            "date": "2017-06-01",
            "value": "84.7636363636364"
        },
        {
            "date": "2017-05-01",
            "value": "88.6380952380952"
        },
        {
            "date": "2017-04-01",
            "value": "87.0361111111111"
        },
        {
            "date": "2017-03-01",
            "value": "86.7826086956522"
        },
        {
            "date": "2017-02-01",
            "value": "85.155"
        },
        {
            "date": "2017-01-01",
            "value": "82.3309523809524"
        },
        {
            "date": "2016-12-01",
            "value": "79.5025"
        },
        {
            "date": "2016-11-01",
            "value": "78.9227272727273"
        },
        {
            "date": "2016-10-01",
            "value": "78.5166666666667"
        },
        {
            "date": "2016-09-01",
            "value": "77.8613636363636"
        },
        {
            "date": "2016-08-01",
            "value": "80.2613636363637"
        },
        {
            "date": "2016-07-01",
            "value": "81.0642857142857"
        },
        {
            "date": "2016-06-01",
            "value": "74.1022727272727"
        },
        {
            "date": "2016-05-01",
            "value": "70.2775"
        },
        {
            "date": "2016-04-01",
            "value": "69.2785714285714"
        },
        {
            "date": "2016-03-01",
            "value": "65.4571428571429"
        },
        {
            "date": "2016-02-01",
            "value": "66.5714285714286"
        },
        {
            "date": "2016-01-01",
            "value": "68.75"
        },
        {
            "date": "2015-12-01",
            "value": "70.3880952380952"
        },
        {
            "date": "2015-11-01",
            "value": "69.2214285714286"
        },
        {
            "date": "2015-10-01",
            "value": "69.0272727272727"
        },
        {
            "date": "2015-09-01",
            "value": "68.7363636363636"
        },
        {
            "date": "2015-08-01",
            "value": "71.8225"
        },
        {
            "date": "2015-07-01",
            "value": "72.3478260869565"
        },
        {
            "date": "2015-06-01",
            "value": "72.3522727272727"
        },
        {
            "date": "2015-05-01",
            "value": "72.8631578947368"
        },
        {
            "date": "2015-04-01",
            "value": "71.7025"
        },
        {
            "date": "2015-03-01",
            "value": "69.3522727272727"
        },
        {
            "date": "2015-02-01",
            "value": "69.8425"
        },
        {
            "date": "2015-01-01",
            "value": "67.35"
        },
        {
            "date": "2014-12-01",
            "value": "68.3047619047619"
        },
        {
            "date": "2014-11-01",
            "value": "67.525"
        },
        {
            "date": "2014-10-01",
            "value": "70.3434782608696"
        },
        {
            "date": "2014-09-01",
            "value": "73.3818181818182"
        },
        {
            "date": "2014-08-01",
            "value": "73.995"
        },
        {
            "date": "2014-07-01",
            "value": "83.8369565217391"
        },
        {
            "date": "2014-06-01",
            "value": "90.8976190476191"
        },
        {
            "date": "2014-05-01",
            "value": "92.7125"
        },
        {
            "date": "2014-04-01",
            "value": "94.2025"
        },
        {
            "date": "2014-03-01",
            "value": "96.947619047619"
        },
        {
            "date": "2014-02-01",
            "value": "94.05"
        },
        {
            "date": "2014-01-01",
            "value": "90.9636363636364"
        },
        {
            "date": "2013-12-01",
            "value": "87.4875"
        },
        {
            "date": "2013-11-01",
            "value": "84.6476190476191"
        },
        {
            "date": "2013-10-01",
            "value": "89.3478260869566"
        },
        {
            "date": "2013-09-01",
            "value": "90.0928571428571"
        },
        {
            "date": "2013-08-01",
            "value": "92.7142857142857"
        },
        {
            "date": "2013-07-01",
            "value": "92.6152173913044"
        },
        {
            "date": "2013-06-01",
            "value": "93.08"
        },
        {
            "date": "2013-05-01",
            "value": "92.6227272727273"
        },
        {
            "date": "2013-04-01",
            "value": "92.535"
        },
        {
            "date": "2013-03-01",
            "value": "94.4475"
        },
        {
            "date": "2013-02-01",
            "value": "89.71"
        },
        {
            "date": "2013-01-01",
            "value": "85.5068181818182"
        },
        {
            "date": "2012-12-01",
            "value": "83.3736842105263"
        },
        {
            "date": "2012-11-01",
            "value": "80.8727272727273"
        },
        {
            "date": "2012-10-01",
            "value": "81.9521739130435"
        },
        {
            "date": "2012-09-01",
            "value": "84.15"
        },
        {
            "date": "2012-08-01",
            "value": "84.3977272727273"
        },
        {
            "date": "2012-07-01",
            "value": "83.9681818181818"
        },
        {
            "date": "2012-06-01",
            "value": "82.1815789473684"
        },
        {
            "date": "2012-05-01",
            "value": "88.5340909090909"
        },
        {
            "date": "2012-04-01",
            "value": "100.097368421053"
        },
        {
            "date": "2012-03-01",
            "value": "99.5045454545455"
        },
        {
            "date": "2012-02-01",
            "value": "100.745238095238"
        },
        {
            "date": "2012-01-01",
            "value": "101.114285714286"
        },
        {
            "date": "2011-12-01",
            "value": "95.445"
        },
        {
            "date": "2011-11-01",
            "value": "104.684090909091"
        },
        {
            "date": "2011-10-01",
            "value": "110.611904761905"
        },
        {
            "date": "2011-09-01",
            "value": "116.877272727273"
        },
        {
            "date": "2011-08-01",
            "value": "114.097727272727"
        },
        {
            "date": "2011-07-01",
            "value": "149.25"
        },
        {
            "date": "2011-06-01",
            "value": "164.925"
        },
        {
            "date": "2011-05-01",
            "value": "165.52"
        },
        {
            "date": "2011-04-01",
            "value": "216.616666666667"
        },
        {
            "date": "2011-03-01",
            "value": "229.667391304348"
        },
        {
            "date": "2011-02-01",
            "value": "213.175"
        },
        {
            "date": "2011-01-01",
            "value": "178.9275"
        },
        {
            "date": "2010-12-01",
            "value": "168.22380952381"
        },
        {
            "date": "2010-11-01",
            "value": "155.468181818182"
        },
        {
            "date": "2010-10-01",
            "value": "126.552380952381"
        },
        {
            "date": "2010-09-01",
            "value": "104.731818181818"
        },
        {
            "date": "2010-08-01",
            "value": "90.3452380952381"
        },
        {
            "date": "2010-07-01",
            "value": "84.15"
        },
        {
            "date": "2010-06-01",
            "value": "91.6833333333333"
        },
        {
            "date": "2010-05-01",
            "value": "90.0710526315789"
        },
        {
            "date": "2010-04-01",
            "value": "88.075"
        },
        {
            "date": "2010-03-01",
            "value": "85.7863636363636"
        },
        {
            "date": "2010-02-01",
            "value": "80.0475"
        },
        {
            "date": "2010-01-01",
            "value": "77.39"
        },
        {
            "date": "2009-12-01",
            "value": "76.7833333333333"
        },
        {
            "date": "2009-11-01",
            "value": "71.7761904761905"
        },
        {
            "date": "2009-10-01",
            "value": "66.8204545454546"
        },
        {
            "date": "2009-09-01",
            "value": "64.0727272727273"
        },
        {
            "date": "2009-08-01",
            "value": "64.255"
        },
        {
            "date": "2009-07-01",
            "value": "64.7978260869565"
        },
        {
            "date": "2009-06-01",
            "value": "61.3886363636364"
        },
        {
            "date": "2009-05-01",
            "value": "61.95"
        },
        {
            "date": "2009-04-01",
            "value": "56.775"
        },
        {
            "date": "2009-03-01",
            "value": "51.5"
        },
        {
            "date": "2009-02-01",
            "value": "55.21"
        },
        {
            "date": "2009-01-01",
            "value": "57.6952380952381"
        },
        {
            "date": "2008-12-01",
            "value": "55.4690476190476"
        },
        {
            "date": "2008-11-01",
            "value": "55.0605263157895"
        },
        {
            "date": "2008-10-01",
            "value": "62.3021739130435"
        },
        {
            "date": "2008-09-01",
            "value": "73.5863636363636"
        },
        {
            "date": "2008-08-01",
            "value": "78.0375"
        },
        {
            "date": "2008-07-01",
            "value": "77.2891304347826"
        },
        {
            "date": "2008-06-01",
            "value": "77.0428571428571"
        },
        {
            "date": "2008-05-01",
            "value": "74.1225"
        },
        {
            "date": "2008-04-01",
            "value": "75.4068181818182"
        },
        {
            "date": "2008-03-01",
            "value": "80.178947368421"
        },
        {
            "date": "2008-02-01",
            "value": "75.0547619047619"
        },
        {
            "date": "2008-01-01",
            "value": "73.2477272727273"
        },
        {
            "date": "2007-12-01",
            "value": "69.5868421052632"
        },
        {
            "date": "2007-11-01",
            "value": "69.7071428571428"
        },
        {
            "date": "2007-10-01",
            "value": "68.9326086956522"
        },
        {
            "date": "2007-09-01",
            "value": "68.2078947368421"
        },
        {
            "date": "2007-08-01",
            "value": "66.6181818181818"
        },
        {
            "date": "2007-07-01",
            "value": "67.805"
        },
        {
            "date": "2007-06-01",
            "value": "60.4394736842105"
        },
        {
            "date": "2007-05-01",
            "value": "55.5738095238095"
        },
        {
            "date": "2007-04-01",
            "value": "57.1775"
        },
        {
            "date": "2007-03-01",
            "value": "58.4113636363637"
        },
        {
            "date": "2007-02-01",
            "value": "57.8921052631579"
        },
        {
            "date": "2007-01-01",
            "value": "59.052380952381"
        },
        {
            "date": "2006-12-01",
            "value": "59.4263157894737"
        },
        {
            "date": "2006-11-01",
            "value": "57.4"
        },
        {
            "date": "2006-10-01",
            "value": "57.0272727272727"
        },
        {
            "date": "2006-09-01",
            "value": "58.82"
        },
        {
            "date": "2006-08-01",
            "value": "59.854347826087"
        },
        {
            "date": "2006-07-01",
            "value": "56.725"
        },
        {
            "date": "2006-06-01",
            "value": "56.4181818181818"
        },
        {
            "date": "2006-05-01",
            "value": "55.4119047619048"
        },
        {
            "date": "2006-04-01",
            "value": "57.1763157894737"
        },
        {
            "date": "2006-03-01",
            "value": "58.6152173913043"
        },
        {
            "date": "2006-02-01",
            "value": "60.75"
        },
        {
            "date": "2006-01-01",
            "value": "59.005"
        },
        {
            "date": "2005-12-01",
            "value": "56.5255"
        },
        {
            "date": "2005-11-01",
            "value": "56.8295454545455"
        },
        {
            "date": "2005-10-01",
            "value": "58.2380952380952"
        },
        {
            "date": "2005-09-01",
            "value": "54.9452380952381"
        },
        {
            "date": "2005-08-01",
            "value": "54.0659090909091"
        },
        {
            "date": "2005-07-01",
            "value": "54.9725"
        },
        {
            "date": "2005-06-01",
            "value": "53.9863636363636"
        },
        {
            "date": "2005-05-01",
            "value": "55.84"
        },
        {
            "date": "2005-04-01",
            "value": "56.9547619047619"
        },
        {
            "date": "2005-03-01",
            "value": "56.2357142857143"
        },
        {
            "date": "2005-02-01",
            "value": "52.165"
        },
        {
            "date": "2005-01-01",
            "value": "51.2605263157895"
        },
        {
            "date": "2004-12-01",
            "value": "48.5952380952381"
        },
        {
            "date": "2004-11-01",
            "value": "49.2425"
        },
        {
            "date": "2004-10-01",
            "value": "52.5222222222222"
        },
        {
            "date": "2004-09-01",
            "value": "56.6785714285714"
        },
        {
            "date": "2004-08-01",
            "value": "53.4714285714286"
        },
        {
            "date": "2004-07-01",
            "value": "57.0159090909091"
        },
        {
            "date": "2004-06-01",
            "value": "64.6342857142857"
        },
        {
            "date": "2004-05-01",
            "value": "70.0394736842105"
        },
        {
            "date": "2004-04-01",
            "value": "69.4394736842105"
        },
        {
            "date": "2004-03-01",
            "value": "72.275"
        },
        {
            "date": "2004-02-01",
            "value": "73.9157894736842"
        },
        {
            "date": "2004-01-01",
            "value": "76.2421052631579"
        },
        {
            "date": "2003-12-01",
            "value": "73.5875"
        },
        {
            "date": "2003-11-01",
            "value": "76.9421052631579"
        },
        {
            "date": "2003-10-01",
            "value": "72.5586956521739"
        },
        {
            "date": "2003-09-01",
            "value": "64.1840909090909"
        },
        {
            "date": "2003-08-01",
            "value": "60.5"
        },
        {
            "date": "2003-07-01",
            "value": "60.2130434782609"
        },
        {
            "date": "2003-06-01",
            "value": "58.5"
        },
        {
            "date": "2003-05-01",
            "value": "57.8025"
        },
        {
            "date": "2003-04-01",
            "value": "60.78"
        },
        {
            "date": "2003-03-01",
            "value": "61.01"
        },
        {
            "date": "2003-02-01",
            "value": "58.5526315789474"
        },
        {
            "date": "2003-01-01",
            "value": "56.7136363636364"
        },
        {
            "date": "2002-12-01",
            "value": "55.2190476190476"
        },
        {
            "date": "2002-11-01",
            "value": "52.325"
        },
        {
            "date": "2002-10-01",
            "value": "49.5568181818182"
        },
        {
            "date": "2002-09-01",
            "value": "48.9789473684211"
        },
        {
            "date": "2002-08-01",
            "value": "49.3214285714286"
        },
        {
            "date": "2002-07-01",
            "value": "46.702380952381"
        },
        {
            "date": "2002-06-01",
            "value": "43.4833333333333"
        },
        {
            "date": "2002-05-01",
            "value": "39.8928571428571"
        },
        {
            "date": "2002-04-01",
            "value": "41.3833333333333"
        },
        {
            "date": "2002-03-01",
            "value": "42.0375"
        },
        {
            "date": "2002-02-01",
            "value": "42.805"
        },
        {
            "date": "2002-01-01",
            "value": "43.4159090909091"
        },
        {
            "date": "2001-12-01",
            "value": "42.8684210526316"
        },
        {
            "date": "2001-11-01",
            "value": "37.9595238095238"
        },
        {
            "date": "2001-10-01",
            "value": "37.2217391304348"
        },
        {
            "date": "2001-09-01",
            "value": "41.2625"
        },
        {
            "date": "2001-08-01",
            "value": "43.3272727272727"
        },
        {
            "date": "2001-07-01",
            "value": "45.5452380952381"
        },
        {
            "date": "2001-06-01",
            "value": "47.4595238095238"
        },
        {
            "date": "2001-05-01",
            "value": "49.9714285714286"
        },
        {
            "date": "2001-04-01",
            "value": "51.1638888888889"
        },
        {
            "date": "2001-03-01",
            "value": "54.5636363636364"
        },
        {
            "date": "2001-02-01",
            "value": "60.4425"
        },
        {
            "date": "2001-01-01",
            "value": "64.1772727272727"
        },
        {
            "date": "2000-12-01",
            "value": "65.8605263157895"
        },
        {
            "date": "2000-11-01",
            "value": "63.9772727272727"
        },
        {
            "date": "2000-10-01",
            "value": "60.8931818181818"
        },
        {
            "date": "2000-09-01",
            "value": "61.6425"
        },
        {
            "date": "2000-08-01",
            "value": "60.8913043478261"
        },
        {
            "date": "2000-07-01",
            "value": "58.3904761904762"
        },
        {
            "date": "2000-06-01",
            "value": "59.4727272727273"
        },
        {
            "date": "2000-05-01",
            "value": "60.5047619047619"
        },
        {
            "date": "2000-04-01",
            "value": "58.7675"
        },
        {
            "date": "2000-03-01",
            "value": "57.304"
        },
        {
            "date": "2000-02-01",
            "value": "53.435"
        },
        {
            "date": "2000-01-01",
            "value": "47.4333333333333"
        },
        {
            "date": "1999-12-01",
            "value": "44.1952380952381"
        },
        {
            "date": "1999-11-01",
            "value": "46.2125"
        },
        {
            "date": "1999-10-01",
            "value": "47.4333333333333"
        },
        {
            "date": "1999-09-01",
            "value": "49.475"
        },
        {
            "date": "1999-08-01",
            "value": "50.9809523809524"
        },
        {
            "date": "1999-07-01",
            "value": "54.41"
        },
        {
            "date": "1999-06-01",
            "value": "58.5"
        },
        {
            "date": "1999-05-01",
            "value": "59.9"
        },
        {
            "date": "1999-04-01",
            "value": "57.7375"
        },
        {
            "date": "1999-03-01",
            "value": "56.706"
        },
        {
            "date": "1999-02-01",
            "value": "56.1875"
        },
        {
            "date": "1999-01-01",
            "value": "55.7750015258789"
        },
        {
            "date": "1998-12-01",
            "value": "56"
        },
        {
            "date": "1998-11-01",
            "value": "56.0800018310547"
        },
        {
            "date": "1998-10-01",
            "value": "61.4599990844727"
        },
        {
            "date": "1998-09-01",
            "value": "66.3874969482422"
        },
        {
            "date": "1998-08-01",
            "value": "68.1750030517578"
        },
        {
            "date": "1998-07-01",
            "value": "69.8639984130859"
        },
        {
            "date": "1998-06-01",
            "value": "68.9380035400391"
        },
        {
            "date": "1998-05-01",
            "value": "64.3600006103516"
        },
        {
            "date": "1998-04-01",
            "value": "65.6999969482422"
        },
        {
            "date": "1998-03-01",
            "value": "68.4250030517578"
        },
        {
            "date": "1998-02-01",
            "value": "68.8375015258789"
        },
        {
            "date": "1998-01-01",
            "value": "72.1374969482422"
        },
        {
            "date": "1997-12-01",
            "value": "74.3539962768555"
        },
        {
            "date": "1997-11-01",
            "value": "77.2249984741211"
        },
        {
            "date": "1997-10-01",
            "value": "77.75"
        },
        {
            "date": "1997-09-01",
            "value": "79.6374969482422"
        },
        {
            "date": "1997-08-01",
            "value": "81.2099990844727"
        },
        {
            "date": "1997-07-01",
            "value": "81.1750030517578"
        },
        {
            "date": "1997-06-01",
            "value": "80.5124969482422"
        },
        {
            "date": "1997-05-01",
            "value": "79.2600021362305"
        },
        {
            "date": "1997-04-01",
            "value": "78.8249969482422"
        },
        {
            "date": "1997-03-01",
            "value": "80.625"
        },
        {
            "date": "1997-02-01",
            "value": "80.4000015258789"
        },
        {
            "date": "1997-01-01",
            "value": "79.7699966430664"
        },
        {
            "date": "1996-12-01",
            "value": "78.2925033569336"
        },
        {
            "date": "1996-11-01",
            "value": "75.9059982299805"
        },
        {
            "date": "1996-10-01",
            "value": "75.4250030517578"
        },
        {
            "date": "1996-09-01",
            "value": "75.3600006103516"
        },
        {
            "date": "1996-08-01",
            "value": "76.7099990844727"
        },
        {
            "date": "1996-07-01",
            "value": "79.8375015258789"
        },
        {
            "date": "1996-06-01",
            "value": "83.125"
        },
        {
            "date": "1996-05-01",
            "value": "82.8899993896484"
        },
        {
            "date": "1996-04-01",
            "value": "83"
        },
        {
            "date": "1996-03-01",
            "value": "83.2300033569336"
        },
        {
            "date": "1996-02-01",
            "value": "86.7874984741211"
        },
        {
            "date": "1996-01-01",
            "value": "85.9124984741211"
        },
        {
            "date": "1995-12-01",
            "value": "88.4250030517578"
        },
        {
            "date": "1995-11-01",
            "value": "89.2874984741211"
        },
        {
            "date": "1995-10-01",
            "value": "91.5250015258789"
        },
        {
            "date": "1995-09-01",
            "value": "91.0999984741211"
        },
        {
            "date": "1995-08-01",
            "value": "84.6500015258789"
        },
        {
            "date": "1995-07-01",
            "value": "95.9770736694336"
        },
        {
            "date": "1995-06-01",
            "value": "104.357498168945"
        },
        {
            "date": "1995-05-01",
            "value": "115.849998474121"
        },
        {
            "date": "1995-04-01",
            "value": "113.224998474121"
        },
        {
            "date": "1995-03-01",
            "value": "110.474998474121"
        },
        {
            "date": "1995-02-01",
            "value": "99.9625015258789"
        },
        {
            "date": "1995-01-01",
            "value": "94.7750015258789"
        },
        {
            "date": "1994-12-01",
            "value": "86.3833312988281"
        },
        {
            "date": "1994-11-01",
            "value": "76.9124984741211"
        },
        {
            "date": "1994-10-01",
            "value": "73.875"
        },
        {
            "date": "1994-09-01",
            "value": "75.2900009155273"
        },
        {
            "date": "1994-08-01",
            "value": "76.9375"
        },
        {
            "date": "1994-07-01",
            "value": "82.0199966430664"
        },
        {
            "date": "1994-06-01",
            "value": "86.1999969482422"
        },
        {
            "date": "1994-05-01",
            "value": "86.0374984741211"
        },
        {
            "date": "1994-04-01",
            "value": "83.25"
        },
        {
            "date": "1994-03-01",
            "value": "81.7699966430664"
        },
        {
            "date": "1994-02-01",
            "value": "79.9749984741211"
        },
        {
            "date": "1994-01-01",
            "value": "67.9375"
        },
        {
            "date": "1993-12-01",
            "value": "58.7357139587402"
        },
        {
            "date": "1993-11-01",
            "value": "54.9124984741211"
        },
        {
            "date": "1993-10-01",
            "value": "54.9124984741211"
        },
        {
            "date": "1993-09-01",
            "value": "55.1624984741211"
        },
        {
            "date": "1993-08-01",
            "value": "55.5"
        },
        {
            "date": "1993-07-01",
            "value": "57.9900016784668"
        },
        {
            "date": "1993-06-01",
            "value": "58.4772720336914"
        },
        {
            "date": "1993-05-01",
            "value": "60.1749992370605"
        },
        {
            "date": "1993-04-01",
            "value": "61.0710525512695"
        },
        {
            "date": "1993-03-01",
            "value": "61.4543495178223"
        },
        {
            "date": "1993-02-01",
            "value": "60.5473670959473"
        },
        {
            "date": "1993-01-01",
            "value": "57.294734954834"
        },
        {
            "date": "1992-12-01",
            "value": "54"
        },
        {
            "date": "1992-11-01",
            "value": "52.6875"
        },
        {
            "date": "1992-10-01",
            "value": "53.1199989318848"
        },
        {
            "date": "1992-09-01",
            "value": "56.6500015258789"
        },
        {
            "date": "1992-08-01",
            "value": "59.75"
        },
        {
            "date": "1992-07-01",
            "value": "65.2900085449219"
        },
        {
            "date": "1992-06-01",
            "value": "63.8875007629395"
        },
        {
            "date": "1992-05-01",
            "value": "60.5900001525879"
        },
        {
            "date": "1992-04-01",
            "value": "57.9874992370605"
        },
        {
            "date": "1992-03-01",
            "value": "55.3250007629395"
        },
        {
            "date": "1992-02-01",
            "value": "56.2999992370605"
        },
        {
            "date": "1992-01-01",
            "value": "59.6199989318848"
        },
        {
            "date": "1991-12-01",
            "value": "61.7625007629395"
        },
        {
            "date": "1991-11-01",
            "value": "64.1000061035156"
        },
        {
            "date": "1991-10-01",
            "value": "67.9400024414063"
        },
        {
            "date": "1991-09-01",
            "value": "70.3250122070313"
        },
        {
            "date": "1991-08-01",
            "value": "73.4700012207031"
        },
        {
            "date": "1991-07-01",
            "value": "81.0249938964844"
        },
        {
            "date": "1991-06-01",
            "value": "83.8399963378906"
        },
        {
            "date": "1991-05-01",
            "value": "84.1700134277344"
        },
        {
            "date": "1991-04-01",
            "value": "83.4299926757813"
        },
        {
            "date": "1991-03-01",
            "value": "84.2300109863281"
        },
        {
            "date": "1991-02-01",
            "value": "84.8800048828125"
        },
        {
            "date": "1991-01-01",
            "value": "83.7099914550781"
        },
        {
            "date": "1990-12-01",
            "value": "83.8599853515625"
        },
        {
            "date": "1990-11-01",
            "value": "82.4299926757813"
        },
        {
            "date": "1990-10-01",
            "value": "81.3599853515625"
        },
        {
            "date": "1990-09-01",
            "value": "81.2799987792969"
        },
        {
            "date": "1990-08-01",
            "value": "81.2799987792969"
        },
        {
            "date": "1990-07-01",
            "value": "91.7900085449219"
        },
        {
            "date": "1990-06-01",
            "value": "90.1799926757813"
        },
        {
            "date": "1990-05-01",
            "value": "85.6000061035156"
        },
        {
            "date": "1990-04-01",
            "value": "82.8699951171875"
        },
        {
            "date": "1990-03-01",
            "value": "78.8999938964844"
        },
        {
            "date": "1990-02-01",
            "value": "75.9599914550781"
        },
        {
            "date": "1990-01-01",
            "value": "75.2000122070313"
        },
        {
            "date": "1989-12-01",
            "value": "."
        },
        {
            "date": "1989-11-01",
            "value": "."
        },
        {
            "date": "1989-10-01",
            "value": "."
        },
        {
            "date": "1989-09-01",
            "value": "."
        },
        {
            "date": "1989-08-01",
            "value": "."
        },
        {
            "date": "1989-07-01",
            "value": "."
        },
        {
            "date": "1989-06-01",
            "value": "."
        },
        {
            "date": "1989-05-01",
            "value": "."
        },
        {
            "date": "1989-04-01",
            "value": "."
        },
        {
            "date": "1989-03-01",
            "value": "."
        },
        {
            "date": "1989-02-01",
            "value": "."
        },
        {
            "date": "1989-01-01",
            "value": "."
        },
        {
            "date": "1988-12-01",
            "value": "."
        },
        {
            "date": "1988-11-01",
            "value": "."
        },
        {
            "date": "1988-10-01",
            "value": "."
        },
        {
            "date": "1988-09-01",
            "value": "."
        },
        {
            "date": "1988-08-01",
            "value": "."
        },
        {
            "date": "1988-07-01",
            "value": "."
        },
        {
            "date": "1988-06-01",
            "value": "."
        },
        {
            "date": "1988-05-01",
            "value": "."
        },
        {
            "date": "1988-04-01",
            "value": "."
        },
        {
            "date": "1988-03-01",
            "value": "."
        },
        {
            "date": "1988-02-01",
            "value": "."
        },
        {
            "date": "1988-01-01",
            "value": "."
        },
        {
            "date": "1987-12-01",
            "value": "."
        },
        {
            "date": "1987-11-01",
            "value": "."
        },
        {
            "date": "1987-10-01",
            "value": "."
        },
        {
            "date": "1987-09-01",
            "value": "."
        },
        {
            "date": "1987-08-01",
            "value": "."
        },
        {
            "date": "1987-07-01",
            "value": "."
        },
        {
            "date": "1987-06-01",
            "value": "."
        },
        {
            "date": "1987-05-01",
            "value": "."
        },
        {
            "date": "1987-04-01",
            "value": "."
        },
        {
            "date": "1987-03-01",
            "value": "."
        },
        {
            "date": "1987-02-01",
            "value": "."
        },
        {
            "date": "1987-01-01",
            "value": "."
        },
        {
            "date": "1986-12-01",
            "value": "."
        },
        {
            "date": "1986-11-01",
            "value": "."
        },
        {
            "date": "1986-10-01",
            "value": "."
        },
        {
            "date": "1986-09-01",
            "value": "."
        },
        {
            "date": "1986-08-01",
            "value": "."
        },
        {
            "date": "1986-07-01",
            "value": "."
        },
        {
            "date": "1986-06-01",
            "value": "."
        },
        {
            "date": "1986-05-01",
            "value": "."
        },
        {
            "date": "1986-04-01",
            "value": "."
        },
        {
            "date": "1986-03-01",
            "value": "."
        },
        {
            "date": "1986-02-01",
            "value": "."
        },
        {
            "date": "1986-01-01",
            "value": "."
        },
        {
            "date": "1985-12-01",
            "value": "."
        },
        {
            "date": "1985-11-01",
            "value": "."
        },
        {
            "date": "1985-10-01",
            "value": "."
        },
        {
            "date": "1985-09-01",
            "value": "."
        },
        {
            "date": "1985-08-01",
            "value": "."
        },
        {
            "date": "1985-07-01",
            "value": "."
        },
        {
            "date": "1985-06-01",
            "value": "."
        },
        {
            "date": "1985-05-01",
            "value": "."
        },
        {
            "date": "1985-04-01",
            "value": "."
        },
        {
            "date": "1985-03-01",
            "value": "."
        },
        {
            "date": "1985-02-01",
            "value": "."
        },
        {
            "date": "1985-01-01",
            "value": "."
        },
        {
            "date": "1984-12-01",
            "value": "."
        },
        {
            "date": "1984-11-01",
            "value": "."
        },
        {
            "date": "1984-10-01",
            "value": "."
        },
        {
            "date": "1984-09-01",
            "value": "."
        },
        {
            "date": "1984-08-01",
            "value": "."
        },
        {
            "date": "1984-07-01",
            "value": "."
        },
        {
            "date": "1984-06-01",
            "value": "."
        },
        {
            "date": "1984-05-01",
            "value": "."
        },
        {
            "date": "1984-04-01",
            "value": "."
        },
        {
            "date": "1984-03-01",
            "value": "."
        },
        {
            "date": "1984-02-01",
            "value": "."
        },
        {
            "date": "1984-01-01",
            "value": "."
        },
        {
            "date": "1983-12-01",
            "value": "."
        },
        {
            "date": "1983-11-01",
            "value": "."
        },
        {
            "date": "1983-10-01",
            "value": "."
        },
        {
            "date": "1983-09-01",
            "value": "."
        },
        {
            "date": "1983-08-01",
            "value": "."
        },
        {
            "date": "1983-07-01",
            "value": "."
        },
        {
            "date": "1983-06-01",
            "value": "."
        },
        {
            "date": "1983-05-01",
            "value": "."
        },
        {
            "date": "1983-04-01",
            "value": "."
        },
        {
            "date": "1983-03-01",
            "value": "."
        },
        {
            "date": "1983-02-01",
            "value": "."
        },
        {
            "date": "1983-01-01",
            "value": "."
        },
        {
            "date": "1982-12-01",
            "value": "."
        },
        {
            "date": "1982-11-01",
            "value": "."
        },
        {
            "date": "1982-10-01",
            "value": "."
        },
        {
            "date": "1982-09-01",
            "value": "."
        },
        {
            "date": "1982-08-01",
            "value": "."
        },
        {
            "date": "1982-07-01",
            "value": "."
        },
        {
            "date": "1982-06-01",
            "value": "."
        },
        {
            "date": "1982-05-01",
            "value": "."
        },
        {
            "date": "1982-04-01",
            "value": "."
        },
        {
            "date": "1982-03-01",
            "value": "."
        },
        {
            "date": "1982-02-01",
            "value": "."
        },
        {
            "date": "1982-01-01",
            "value": "."
        },
        {
            "date": "1981-12-01",
            "value": "."
        },
        {
            "date": "1981-11-01",
            "value": "."
        },
        {
            "date": "1981-10-01",
            "value": "."
        },
        {
            "date": "1981-09-01",
            "value": "."
        },
        {
            "date": "1981-08-01",
            "value": "."
        },
        {
            "date": "1981-07-01",
            "value": "."
        },
        {
            "date": "1981-06-01",
            "value": "."
        },
        {
            "date": "1981-05-01",
            "value": "."
        },
        {
            "date": "1981-04-01",
            "value": "."
        },
        {
            "date": "1981-03-01",
            "value": "."
        },
        {
            "date": "1981-02-01",
            "value": "."
        },
        {
            "date": "1981-01-01",
            "value": "."
        },
        {
            "date": "1980-12-01",
            "value": "."
        },
        {
            "date": "1980-11-01",
            "value": "."
        },
        {
            "date": "1980-10-01",
            "value": "."
        },
        {
            "date": "1980-09-01",
            "value": "."
        },
        {
            "date": "1980-08-01",
            "value": "."
        },
        {
            "date": "1980-07-01",
            "value": "."
        },
        {
            "date": "1980-06-01",
            "value": "."
        },
        {
            "date": "1980-05-01",
            "value": "."
        },
        {
            "date": "1980-04-01",
            "value": "."
        },
        {
            "date": "1980-03-01",
            "value": "."
        },
        {
            "date": "1980-02-01",
            "value": "."
        },
        {
            "date": "1980-01-01",
            "value": "."
        }
    ]
}