{
  "status": "ok",
  "news": [
    {
      "id": "bb79e4f9-e127-4e6c-896a-3bd81f095420",
      "title": "Sims Limited (SMSMY) Q2 2023 Earnings Call Transcript",
      "description": "Sims Limited (OTCPK:SMSMY) Q2 2023 Earnings Conference Call February 13, 2023 6:00 PM ETCompany ParticipantsAlistair Field - Group CEO and Managing DirectorStephen Mikkelsen - Group...",
      "url": "https://seekingalpha.com/article/4578010-sims-limited-smsmy-q2-2023-earnings-call-transcript?source=feed_tag_australia",
      "author": "SA Transcripts",
      "image": "https://static.seekingalpha.com/assets/og_image_1200-29b2bfe1a595477db6826bd2126c63ac2091efb7ec76347a8e7f81ba17e3de6c.png",
      "language": "en",
      "category": ["finance"],
      "published": "2023-02-14 06:57:05 +0000"
    },
    {
      "id": "d03c4f63-b325-4b42-a0ae-4d91d04badc2",
      "title": "Why Canada's Housing Market May Avoid Significant Declines This Year",
      "description": "Bank of Canada has signaled a pause in rate hikes for now. But there are concerns about the impact of the runup in rates on housing down the road. Senior TD Economist Francis Fong discusses.",
      "url": "https://seekingalpha.com/article/4578008-canada-housing-may-avoid-significant-declines-this-year?source=feed_tag_canada",
      "author": "TD Wealth",
      "image": "https://static.seekingalpha.com/cdn/s3/uploads/getty_images/1355733483/image_1355733483.jpg?io=getty-c-w1536",
      "language": "en",
      "category": ["finance"],
      "published": "2023-02-14 06:55:00 +0000"
    },
    {
      "id": "a0e4d996-f7ee-4ab6-af16-01058faac012",
      "title": "Georgia Nichols (MAIA \u2018 23) Recounts Her Field Research Experience in Vanuatu",
      "description": "Georgia Nichols (MAIA \u2018 23) Recounts Her Field Research Experience in Vanuatu\n\nThe Frederick S. Pardee School of Global Studies\u2019 Gilman Travel Grant is the school\u2019s flagship opportunity for institutio...",
      "url": "https://www.bu.edu/pardeeschool/2023/02/13/georgia-nichols-maia-23-recounts-her-field-research-experience-in-vanuatu/",
      "author": "",
      "image": "https://www.bu.edu/pardeeschool/wp-content/themes/responsive-framework-2-x/icons/apple-touch-icon-precomposed.png",
      "language": "en",
      "category": ["finance", "scholarship"],
      "published": "2023-02-14 05:36:15 +0000"
    },
    {
      "id": "6211a3fb-657e-403b-ab60-e119d393308d",
      "title": "Moldova fears it might fall victim to a Russian coup plot | Europe",
      "description": "But the West is rallying around the tiny former Soviet republic",
      "url": "https://www.economist.com/europe/2023/02/13/moldova-fears-it-might-fall-victim-to-a-russian-coup-plot",
      "author": "The Economist",
      "image": "https://www.economist.com/img/b/1280/720/90/media-assets/image/20230218_EUP501.jpg",
      "language": "en",
      "category": ["finance", "business", "economy"],
      "published": "2023-02-14 05:27:03 +0000"
    },
    {
      "id": "24cfa3f6-a4a7-4b81-b071-2b90ef01f6e6",
      "title": "The future of internet search, Adani's agony and why France is arguing about work, and the right to be lazy | Podcasts",
      "description": "A selection of three essential articles read aloud from the latest issue of The Economist",
      "url": "https://www.economist.com/podcasts/2023/02/13/the-future-of-internet-search-adanis-agony-and-why-france-is-arguing-about-work-and-the-right-to-be-lazy",
      "author": "The Economist",
      "image": "https://www.economist.com/img/b/1911/1080/90/media-assets/image/pdp_editorspicks.jpg",
      "language": "en",
      "category": ["finance", "business", "economy"],
      "published": "2023-02-14 05:27:03 +0000"
    },
    {
      "id": "88220029-4b0d-40c7-a90f-75275b97e151",
      "title": "India and Pakistan are choking on each other's pollution | Asia",
      "description": "I ndians are accustomed to seeing their streets getting a lick of paint or the odd pothole being filled before a senior politician or foreign dignitaries come to town. But to prepare for a visit from ...",
      "url": "https://www.economist.com/asia/2023/02/13/india-and-pakistan-are-choking-on-each-others-pollution",
      "author": "economist",
      "image": "https://www.economist.com/img/b/1280/720/90/media-assets/image/20230218_ASP501.jpg",
      "language": "en",
      "category": ["finance", "business", "economy"],
      "published": "2023-02-14 05:27:03 +0000"
    },
    {
      "id": "c3c93278-1ed9-42aa-b489-b0e7be4132b6",
      "title": "The most expensive cities in which to celebrate Valentine's Day | Graphic detail",
      "description": "To read more of The Economist\u2019s data journalism visit our Graphic Detail page.\n\nT REATING SOMEONE to a date on Valentine\u2019s Day can cost a pretty penny. But in some cities it takes a prettier penny tha...",
      "url": "https://www.economist.com/graphic-detail/2023/02/13/the-most-expensive-cities-in-which-to-celebrate-valentines-day",
      "author": "The Economist",
      "image": "https://www.economist.com/img/b/1280/720/90/media-assets/image/20230218_WOT966.png",
      "language": "en",
      "category": ["finance", "business", "economy"],
      "published": "2023-02-14 05:27:03 +0000"
    },
    {
      "id": "4d225c37-6e34-483d-8561-461fbb2565ce",
      "title": "\"The rescue effort continues, but increasingly it resembles a mass exhumation\"\u2014a report from Turkey | Podcasts",
      "description": "OUR CORRESPONDENT visits town after devastated town. Poorly enforced building codes are one clear factor in the rising death toll\u2014and a political backlash looms. Britain\u2019s productivity problem is at l...",
      "url": "https://www.economist.com/podcasts/2023/02/13/the-rescue-effort-continues-but-increasingly-it-resembles-a-mass-exhumation-a-report-from-turkey",
      "author": "The Economist",
      "image": "https://www.economist.com/img/b/1280/720/90/media-assets/image/20230218_PDP599.jpg",
      "language": "en",
      "category": ["finance", "business", "economy"],
      "published": "2023-02-14 05:27:03 +0000"
    },
    {
      "id": "591fc30b-7b06-463e-8a77-f2704d6381d5",
      "title": "Polyplastics Introduces New DURANEX (R) PBT 201EB Resin for Millimeter Wave Radar for Automotive Applications",
      "description": "TOKYO, Feb. 14, 2023 /PRNewswire/ -- The Polyplastics Group has announced the launch of a new electrically conductive grade of DURANEX (R) polybutylene terephthalate (PBT) for millimeter wave radar applications for the",
      "url": "https://www.benzinga.com/pressreleases/23/02/n30892292/polyplastics-introduces-new-duranex-r-pbt-201eb-resin-for-millimeter-wave-radar-for-automotive-app",
      "author": "PRNewswire",
      "image": "/next-assets/images/schema-image-default.png",
      "language": "en",
      "category": ["finance"],
      "published": "2023-02-14 05:00:00 +0000"
    },
    {
      "id": "55d95cd6-5434-472d-850f-498a0d8984e3",
      "title": "Company News for Feb 13, 2023 - Yahoo Finance",
      "description": "Yahoo Life Shopping\n\nIf you waited until the last minute to buy a Valentine's Day gift, we have you covered! Our picks from 1-800-Flowers start at just $49 and can get there on the 14th....",
      "url": "https://www.yahoo.com/lifestyle/company-news-feb-13-2023-143702848.html",
      "author": "Zacks Equity Research",
      "image": "https://media.zenfs.com/en/zacks.com/b71cd4132a01bb9c072563520af1acf1",
      "language": "en",
      "category": ["finance", "company"],
      "published": "2023-02-14 04:24:53 +0000"
    },
    {
      "id": "1eab4360-d43b-4e2c-922b-f7e4cca7956d",
      "title": "Veterinary Rapid Test Market Size to Surpass US$ 1,504.10 million by 2030 - Growth Plus Reports",
      "description": "Newark, New Castle, USA, Feb. 13, 2023 (GLOBE NEWSWIRE) -- According to the latest report published by Growth Plus Reports, the Global Veterinary Rapid Test Market is expected to clock US$ 1,504.10 million by 2030 and to grow at a CAGR of 8.2% during the forecast period. \u00a0This exclusive information ...",
      "url": "https://www.benzinga.com/pressreleases/23/02/g30892233/veterinary-rapid-test-market-size-to-surpass-us-1-504-10-million-by-2030-growth-plus-reports",
      "author": "Globe Newswire",
      "image": "None",
      "language": "en",
      "category": ["finance"],
      "published": "2023-02-14 04:24:02 +0000"
    },
    {
      "id": "a88d00d2-f9a6-4f70-9a59-01adee72b62e",
      "title": "Ansell Limited (ANSLF) Q2 2023 Earnings Call Transcript",
      "description": "Ansell Limited (OTCPK:ANSLF) Q2 2023 Earnings Conference Call February 13, 2023 4:00 PM ETCorporate ParticipantsNeil Salmon - Chief Executive OfficerZubair Javeed - Chief Financial...",
      "url": "https://seekingalpha.com/article/4577977-ansell-limited-anslf-q2-2023-earnings-call-transcript?source=feed_tag_australia",
      "author": "SA Transcripts",
      "image": "https://static.seekingalpha.com/assets/og_image_1200-29b2bfe1a595477db6826bd2126c63ac2091efb7ec76347a8e7f81ba17e3de6c.png",
      "language": "en",
      "category": ["finance"],
      "published": "2023-02-14 04:01:06 +0000"
    },
    {
      "id": "78800bf9-24b0-457b-82c7-e63af9003de5",
      "title": "Britons could boost pension by \u00a3130,000 by giving it 'a little love' for retirement",
      "description": "Pension: Britons could boost savings by \u00a3130,000 by giving sum \u2018a little love\u2019\n\nWe use your sign-up to provide content in ways you've consented to and to improve our understanding of you. This may inc...",
      "url": "https://www.express.co.uk/finance/personalfinance/1733380/pension-savings-tax-relief-contributions-retirement-UK",
      "author": "Rebekah Evans",
      "image": "https://cdn.images.express.co.uk/img/dynamic/23/1200x712/4559503.jpg?r=1676049916920",
      "language": "en",
      "category": ["finance"],
      "published": "2023-02-14 04:01:00 +0000"
    },
    {
      "id": "6120bcfd-9ac9-44c6-a1ea-fb1d75707717",
      "title": "MGT releases findings, recommendations for A&M Galveston campus",
      "description": "Close Get email notifications on {{subject}} daily!\n\nYour notification has been saved.\n\nThere was a problem saving your notification.\n\n{{description}}\n\nEmail notifications are only sent once a day, an...",
      "url": "https://www.thebatt.com/news/mgt-releases-findings-recommendations-for-a-m-galveston-campus/article_faa35b5e-ac11-11ed-b7c8-cfe1ded266f0.html",
      "author": "Michaela Rush",
      "image": "https://bloximages.newyork1.vip.townnews.com/thebatt.com/content/tncms/assets/v3/editorial/f/33/f3351a8e-ab20-11ed-8395-5b36f3dc3e34/63e962f9f35ef.image.jpg?crop=1000%2C525%2C0%2C18&resize=1000%2C525&order=crop%2Cresize",
      "language": "en",
      "category": ["finance", "scholarship"],
      "published": "2023-02-14 03:54:47 +0000"
    },
    {
      "id": "c15ee545-d7c9-466f-b5ae-ee7bd14b1347",
      "title": "Intertek Stock: No Margin Of Safety (OTCMKTS:IKTSF)",
      "description": "Intertek is a global operator in the testing, inspection, and certification space. While it has hallmarks of a quality business, read why I rate the stock a Hold.",
      "url": "https://seekingalpha.com/article/4577961-intertek-stock-no-margin-of-safety?source=feed_tag_united_kingdom",
      "author": "Flagship Asset Management",
      "image": "https://static.seekingalpha.com/cdn/s3/uploads/getty_images/1323645979/image_1323645979.jpg?io=getty-c-w1536",
      "language": "en",
      "category": ["finance"],
      "published": "2023-02-14 03:53:27 +0000"
    },
    {
      "id": "72642182-2791-4284-9851-e7e864c1d8f8",
      "title": "Biden Expected To Name Fed Vice Chair Lael Brainard As Next Top Economic Adviser: Report",
      "description": "",
      "url": "https://www.benzinga.com/government/23/02/30892159/biden-expected-to-name-fed-vice-chair-lael-brainard-as-next-top-economic-adviser-report",
      "author": "Bhavik Nair",
      "image": "https://cdn.benzinga.com/files/images/story/2023/Photo_by_ID1974_on_Shutterstock.jpeg?width=1200&height=800&fit=crop",
      "language": "en",
      "category": ["finance"],
      "published": "2023-02-14 03:35:01 +0000"
    },
    {
      "id": "610c3594-ab41-4fd9-b45a-98ee9d4bb046",
      "title": "Shooting at Michigan State University Kills at Least Three; Five Hospitalized With Injuries",
      "description": "The shooting suspect was later found dead of a self-inflicted gunshot wound, officials said.",
      "url": "https://www.wsj.com/articles/multiple-injuries-in-shooting-on-michigan-state-university-campus-208f2b97",
      "author": "Ben Kesling and Talal Ansari",
      "image": "https://images.wsj.net/im-724145/social",
      "language": "en",
      "category": ["finance"],
      "published": "2023-02-14 03:33:00 +0000"
    },
    {
      "id": "6c9d41bc-3487-44f7-b1c1-f948a19d6d25",
      "title": "'Epic Fail:' Trump Rates Rihanna's Performance As 'Single Worst' Super Bowl Halftime Show",
      "description": "Former President Donald Trump panned Rihanna&rsquo;s performance during the half-time show at Super Bowl LVII.",
      "url": "https://www.benzinga.com/general/entertainment/23/02/30892070/epic-fail-trump-rates-rihannas-performance-as-single-worst-super-bowl-halftime-show",
      "author": "Shivdeep Dhaliwal",
      "image": "https://cdn.benzinga.com/files/images/story/2023/02/13/shutterstock_1503731432.jpg?width=1200&height=800&fit=crop",
      "language": "en",
      "category": ["finance", "politics"],
      "published": "2023-02-14 03:01:07 +0000"
    },
    {
      "id": "cda163d4-4cfe-4a5c-8e5c-edb384d7830f",
      "title": "Virginia Auctioneer Linford Berry Named State Champion Auctioneer",
      "description": "DAYTON, Va., Feb. 13, 2023 /PRNewswire/ -- Mountain Valley Auction Group&#39;s auctioneer, Linford Berry, recently won the coveted title of Virginia State Champion Auctioneer at the annual Virginia Auctioneers",
      "url": "https://www.benzinga.com/pressreleases/23/02/n30892072/virginia-auctioneer-linford-berry-named-state-champion-auctioneer",
      "author": "PRNewswire",
      "image": "/next-assets/images/schema-image-default.png",
      "language": "en",
      "category": ["finance"],
      "published": "2023-02-14 02:48:00 +0000"
    },
    {
      "id": "d83ba91e-6263-4bf2-8219-034b169194fa",
      "title": "Grambling State receives $2.2M grant to boost broadband services",
      "description": "Grambling, La. \u2013 February 13, 2023 \u2013 A $2.2 grant from the National Telecommunications and Information Administration (NTIA) will help more than 1,000 Grambling State University students receive improved on-campus broadband services. \u00a0 The funding, which will cover a two-year period, will help provi...",
      "url": "https://www.gram.edu/news/index.php/2023/02/14/grambling-state-receives-2-2m-grant-to-boost-broadband-services/",
      "author": "Tisha Arnold",
      "image": "None",
      "language": "en",
      "category": ["finance", "scholarship"],
      "published": "2023-02-14 02:35:04 +0000"
    },
    {
      "id": "bc9b801e-bc49-4712-b6bb-b703940dd542",
      "title": "Bitcoin, Ethereum, Dogecoin Get Butterflies Ahead Of Valentine's Day Inflation Data: Analyst Warns Apex Crypto Could Fall To $18.5K",
      "description": "Major coins traded flat on Monday evening, as the market capitalization dropped by 0.85% in the last 24 hours to $1 trillion.\n\n\n\nCryptocurrency\nGains (+/-)\nPrice\n\n\n\n\nBitcoin\n-0.02%\n$21,727\n\n\nEthereum\n-0.43%\n$1,498\n\n\nDogecoin\n+0.03%\n$0.081\n\n\n\nWhat Happened: The largest cryptocurrency by market value,...",
      "url": "https://www.benzinga.com/markets/cryptocurrency/23/02/30891929/bitcoin-ethereum-dogecoin-get-butterflies-ahead-of-valentines-day-inflation-data-analyst-w",
      "author": "Mehab Qureshi",
      "image": "None",
      "language": "hy",
      "category": ["finance"],
      "published": "2023-02-14 02:34:29 +0000"
    },
    {
      "id": "84742b38-8038-4f7a-86ed-89824b7229b0",
      "title": "BLUETTI AC500 is Finally Available on Canadian Official Store & Amazon",
      "description": "TORONTO, Feb. 13, 2023 /CNW/ -- BLUETTI AC500 has eventually raised $11 million on Indiegogo, breaking another record in BLUETTI&#39;s history. As of January, the AC500 and its expansion battery B300S have hit the",
      "url": "https://www.benzinga.com/pressreleases/23/02/n30892044/bluetti-ac500-is-finally-available-on-canadian-official-store-amazon",
      "author": "PRNewswire",
      "image": "/next-assets/images/schema-image-default.png",
      "language": "en",
      "category": ["finance"],
      "published": "2023-02-14 02:32:00 +0000"
    },
    {
      "id": "14d0ed13-e681-48c3-9cd5-4b6acb4209f4",
      "title": "Fallout of crypto stablecoin regulation spills over to decentralised finance sector",
      "description": "",
      "url": "https://www.businesstimes.com.sg/companies-markets/fallout-crypto-stablecoin-regulation-spills-over-decentralised-finance-sector",
      "author": "",
      "image": "",
      "language": "en",
      "category": ["business", "finance"],
      "published": "2023-02-14 02:25:13 +0000"
    },
    {
      "id": "974ba3b4-ea0e-4539-b664-5d3fcb68a11e",
      "title": "Psychosis-Related Outcomes Not Linked To State Cannabis Legalization, Finds Study Of 64M Americans",
      "description": "A recent&nbsp;study done&nbsp;by a&nbsp;team of Stanford University researchers concluded&nbsp;that there is no statistically significant difference in the rates of psychosis-related diagnoses and prescribed antipsychotics in states with medical or recreational cannabis policies as compared with sta...",
      "url": "https://www.benzinga.com/markets/cannabis/23/02/30891999/state-cannabis-legalization-no-links-to-psychosis-related-outcomes-says-study-involving-64m-amer",
      "author": "Maureen Meehan",
      "image": "https://cdn.benzinga.com/files/images/story/2023/02/13/weed_brain_question_hainguyenrp_lindsayfox_by_pixabay.jpg_copy.jpg?width=1200&height=800&fit=crop",
      "language": "en",
      "category": ["finance"],
      "published": "2023-02-14 02:21:31 +0000"
    },
    {
      "id": "b89a5def-b1a6-45e8-98a4-4f240280ab99",
      "title": "Kazuo Ueda Is Nominated to Lead the Bank of Japan",
      "description": "The former University of Tokyo professor is set to replace Haruhiko Kuroda in the first leadership change in a decade.",
      "url": "https://www.wsj.com/articles/kazuo-ueda-is-nominated-to-lead-the-bank-of-japan-dcc63cc7",
      "author": "Megumi Fujikawa",
      "image": "https://images.wsj.net/im-724120/social",
      "language": "en",
      "category": ["finance"],
      "published": "2023-02-14 02:20:00 +0000"
    },
    {
      "id": "b44b349e-6eac-402c-b6b8-cc824804d765",
      "title": "Court rejects Nirav Modi sister's plea for ED's intervention in US bankruptcy matter",
      "description": "A special court on Monday rejected a plea of Purvi Mehta, sister of  PNB scam accused Nirav Modi, seeking a direction to the Enforcement Directorate to intervene in bankruptcy proceedings underway against him in the United States where she has been made a defendant.",
      "url": "https://www.indiatoday.in/law/lower-courts/story/court-rejects-nirav-modi-sisters-plea-for-eds-intervention-in-us-bankruptcy-matter-2334361-2023-02-14",
      "author": "Press Trust of India",
      "image": "https://akm-img-a-in.tosshub.com/indiatoday/images/story/202302/purvi_modi-sixteen_nine.jpeg?VersionId=dKK_haMr09YGuFx7KWyidWT89l7.KGJE",
      "language": "en",
      "category": ["finance", "bankrupt"],
      "published": "2023-02-14 02:16:05 +0000"
    },
    {
      "id": "3730d7fa-3e15-460a-b548-251c0314fd83",
      "title": "Zendure Showcases Its Latest Innovations in Portable, Solar Power at Intersolar North America",
      "description": "Visit Zendure at Intersolar (Booth 2159) \nLONG BEACH, Calif., Feb. 13, 2023 /PRNewswire/ -- Zendure, one of the fastest growing clean energy tech startups, shows off its latest innovations in portable, solar power at Intersolar North America.\nLeading the charge is SuperBase V, the first modular, por...",
      "url": "https://www.benzinga.com/pressreleases/23/02/n30891986/zendure-showcases-its-latest-innovations-in-portable-solar-power-at-intersolar-north-america",
      "author": "PRNewswire",
      "image": "None",
      "language": "en",
      "category": ["finance"],
      "published": "2023-02-14 02:16:00 +0000"
    },
    {
      "id": "dd7d3d82-7682-4214-91e6-4a306a4c7dc3",
      "title": "Palantir Says Helped Foil Plot To Topple German Government As It Eyes Profitable 2023: 'We've Built Software That Actually Works'",
      "description": "Palantir Technologies Inc&#39;s&nbsp;(NYSE: PLTR) CTO said on the company&rsquo;s fourth-quarte",
      "url": "https://www.benzinga.com/news/earnings/23/02/30891912/palantir-says-helped-foil-plot-to-topple-german-government-as-it-eyes-profitable-2023-weve-built-so",
      "author": "Shivdeep Dhaliwal",
      "image": "https://cdn.benzinga.com/files/images/story/2023/02/13/shutterstock_1929112103.jpg?width=1200&height=800&fit=crop",
      "language": "en",
      "category": ["finance", "technology"],
      "published": "2023-02-14 02:12:08 +0000"
    },
    {
      "id": "40b98981-5ab1-4263-8038-885a84d20dc2",
      "title": "Dr. Maureen Dunne Invited as Keynote Speaker at Global Education Summit in Panama",
      "description": "CHICAGO, Feb. 13, 2023 (GLOBE NEWSWIRE) -- Autism Community Ventures is proud to report that Dr. Maureen Dunne will appear as a keynote speaker at the upcoming Global Early Education Summit (\"GEES\"), which will take place April 14-15, 2023, in Panama City, Panama.\u00a0\nThe Summit theme is \"Preparing Chi...",
      "url": "https://www.benzinga.com/pressreleases/23/02/g30891883/dr-maureen-dunne-invited-as-keynote-speaker-at-global-education-summit-in-panama",
      "author": "Globe Newswire",
      "image": "None",
      "language": "en",
      "category": ["finance", "education"],
      "published": "2023-02-14 02:00:00 +0000"
    },
    {
      "id": "01ec28f9-46bd-4f85-bd1b-19fe90c9bcc4",
      "title": "Hong Kong stocks open higher ahead of US data",
      "description": "Hong Kong stocks opened slightly higher on Tuesday morning following a strong lead from Wall Street ahead of key US inflation data later in the day. T...",
      "url": "https://news.rthk.hk/rthk/en/component/k2/1687796-20230214.htm",
      "author": "rthk",
      "image": "https://newsstatic.rthk.hk/images/mfile_1687796_1_L_20230214095940.jpg",
      "language": "en",
      "category": ["finance"],
      "published": "2023-02-14 01:59:39 +0000"
    }
  ],
  "page": 1
}
