{
    "name": "Global Price of Sugar",
    "interval": "monthly",
    "unit": "cents per pound",
    "data": [
        {
            "date": "2023-01-01",
            "value": "19.9431818181818"
        },
        {
            "date": "2022-12-01",
            "value": "20.065"
        },
        {
            "date": "2022-11-01",
            "value": "19.4059090909091"
        },
        {
            "date": "2022-10-01",
            "value": "18.3009523809524"
        },
        {
            "date": "2022-09-01",
            "value": "18.1859090909091"
        },
        {
            "date": "2022-08-01",
            "value": "18.0626086956522"
        },
        {
            "date": "2022-07-01",
            "value": "18.34"
        },
        {
            "date": "2022-06-01",
            "value": "18.7940909090909"
        },
        {
            "date": "2022-05-01",
            "value": "19.2809090909091"
        },
        {
            "date": "2022-04-01",
            "value": "19.6990476190476"
        },
        {
            "date": "2022-03-01",
            "value": "19.1078260869565"
        },
        {
            "date": "2022-02-01",
            "value": "18.2031578947368"
        },
        {
            "date": "2022-01-01",
            "value": "18.461"
        },
        {
            "date": "2021-12-01",
            "value": "19.1672727272727"
        },
        {
            "date": "2021-11-01",
            "value": "19.7461904761905"
        },
        {
            "date": "2021-10-01",
            "value": "19.6190476190476"
        },
        {
            "date": "2021-09-01",
            "value": "19.2642857142857"
        },
        {
            "date": "2021-08-01",
            "value": "19.3836363636364"
        },
        {
            "date": "2021-07-01",
            "value": "17.7147619047619"
        },
        {
            "date": "2021-06-01",
            "value": "17.2140909090909"
        },
        {
            "date": "2021-05-01",
            "value": "17.2033333333333"
        },
        {
            "date": "2021-04-01",
            "value": "16.237619047619"
        },
        {
            "date": "2021-03-01",
            "value": "15.805652173913"
        },
        {
            "date": "2021-02-01",
            "value": "17.0005263157895"
        },
        {
            "date": "2021-01-01",
            "value": "15.9163157894737"
        },
        {
            "date": "2020-12-01",
            "value": "14.6677272727273"
        },
        {
            "date": "2020-11-01",
            "value": "14.9335"
        },
        {
            "date": "2020-10-01",
            "value": "14.2877272727273"
        },
        {
            "date": "2020-09-01",
            "value": "12.4414285714286"
        },
        {
            "date": "2020-08-01",
            "value": "12.8142857142857"
        },
        {
            "date": "2020-07-01",
            "value": "11.9018181818182"
        },
        {
            "date": "2020-06-01",
            "value": "11.8281818181818"
        },
        {
            "date": "2020-05-01",
            "value": "10.641"
        },
        {
            "date": "2020-04-01",
            "value": "10.0519047619048"
        },
        {
            "date": "2020-03-01",
            "value": "11.805"
        },
        {
            "date": "2020-02-01",
            "value": "15.0710526315789"
        },
        {
            "date": "2020-01-01",
            "value": "14.1666666666667"
        },
        {
            "date": "2019-12-01",
            "value": "13.3352380952381"
        },
        {
            "date": "2019-11-01",
            "value": "12.687"
        },
        {
            "date": "2019-10-01",
            "value": "12.4573913043478"
        },
        {
            "date": "2019-09-01",
            "value": "11.158"
        },
        {
            "date": "2019-08-01",
            "value": "11.5554545454546"
        },
        {
            "date": "2019-07-01",
            "value": "12.1286363636364"
        },
        {
            "date": "2019-06-01",
            "value": "12.4395"
        },
        {
            "date": "2019-05-01",
            "value": "11.825"
        },
        {
            "date": "2019-04-01",
            "value": "12.5357142857143"
        },
        {
            "date": "2019-03-01",
            "value": "12.4738095238095"
        },
        {
            "date": "2019-02-01",
            "value": "12.9289473684211"
        },
        {
            "date": "2019-01-01",
            "value": "12.6809523809524"
        },
        {
            "date": "2018-12-01",
            "value": "12.5535"
        },
        {
            "date": "2018-11-01",
            "value": "12.792380952381"
        },
        {
            "date": "2018-10-01",
            "value": "13.1847826086957"
        },
        {
            "date": "2018-09-01",
            "value": "10.7836842105263"
        },
        {
            "date": "2018-08-01",
            "value": "10.4552173913043"
        },
        {
            "date": "2018-07-01",
            "value": "11.1552380952381"
        },
        {
            "date": "2018-06-01",
            "value": "12.0619047619048"
        },
        {
            "date": "2018-05-01",
            "value": "11.8272727272727"
        },
        {
            "date": "2018-04-01",
            "value": "11.8242857142857"
        },
        {
            "date": "2018-03-01",
            "value": "12.8257142857143"
        },
        {
            "date": "2018-02-01",
            "value": "13.5726315789474"
        },
        {
            "date": "2018-01-01",
            "value": "13.9795238095238"
        },
        {
            "date": "2017-12-01",
            "value": "14.4325"
        },
        {
            "date": "2017-11-01",
            "value": "14.9666666666667"
        },
        {
            "date": "2017-10-01",
            "value": "14.2318181818182"
        },
        {
            "date": "2017-09-01",
            "value": "13.931"
        },
        {
            "date": "2017-08-01",
            "value": "13.7960869565217"
        },
        {
            "date": "2017-07-01",
            "value": "14.119"
        },
        {
            "date": "2017-06-01",
            "value": "13.53"
        },
        {
            "date": "2017-05-01",
            "value": "15.6890909090909"
        },
        {
            "date": "2017-04-01",
            "value": "16.3168421052632"
        },
        {
            "date": "2017-03-01",
            "value": "18.0595652173913"
        },
        {
            "date": "2017-02-01",
            "value": "20.4057894736842"
        },
        {
            "date": "2017-01-01",
            "value": "20.5375"
        },
        {
            "date": "2016-12-01",
            "value": "18.83"
        },
        {
            "date": "2016-11-01",
            "value": "20.8685714285714"
        },
        {
            "date": "2016-10-01",
            "value": "22.9166666666667"
        },
        {
            "date": "2016-09-01",
            "value": "21.352380952381"
        },
        {
            "date": "2016-08-01",
            "value": "20.014347826087"
        },
        {
            "date": "2016-07-01",
            "value": "19.687"
        },
        {
            "date": "2016-06-01",
            "value": "19.3372727272727"
        },
        {
            "date": "2016-05-01",
            "value": "16.6842857142857"
        },
        {
            "date": "2016-04-01",
            "value": "14.9980952380952"
        },
        {
            "date": "2016-03-01",
            "value": "15.4304545454545"
        },
        {
            "date": "2016-02-01",
            "value": "13.314"
        },
        {
            "date": "2016-01-01",
            "value": "14.2910526315789"
        },
        {
            "date": "2015-12-01",
            "value": "14.7627272727273"
        },
        {
            "date": "2015-11-01",
            "value": "14.843"
        },
        {
            "date": "2015-10-01",
            "value": "14.1418181818182"
        },
        {
            "date": "2015-09-01",
            "value": "12.1371428571429"
        },
        {
            "date": "2015-08-01",
            "value": "10.6747619047619"
        },
        {
            "date": "2015-07-01",
            "value": "11.8786363636364"
        },
        {
            "date": "2015-06-01",
            "value": "12.1136363636364"
        },
        {
            "date": "2015-05-01",
            "value": "12.7035"
        },
        {
            "date": "2015-04-01",
            "value": "12.9109523809524"
        },
        {
            "date": "2015-03-01",
            "value": "12.8409090909091"
        },
        {
            "date": "2015-02-01",
            "value": "14.5121052631579"
        },
        {
            "date": "2015-01-01",
            "value": "15.0625"
        },
        {
            "date": "2014-12-01",
            "value": "14.9922727272727"
        },
        {
            "date": "2014-11-01",
            "value": "15.8789473684211"
        },
        {
            "date": "2014-10-01",
            "value": "16.475652173913"
        },
        {
            "date": "2014-09-01",
            "value": "16.5442857142857"
        },
        {
            "date": "2014-08-01",
            "value": "17.7247619047619"
        },
        {
            "date": "2014-07-01",
            "value": "18.7304545454545"
        },
        {
            "date": "2014-06-01",
            "value": "18.2419047619048"
        },
        {
            "date": "2014-05-01",
            "value": "18.2404761904762"
        },
        {
            "date": "2014-04-01",
            "value": "18.2147619047619"
        },
        {
            "date": "2014-03-01",
            "value": "17.8880952380952"
        },
        {
            "date": "2014-02-01",
            "value": "16.8852631578947"
        },
        {
            "date": "2014-01-01",
            "value": "15.707619047619"
        },
        {
            "date": "2013-12-01",
            "value": "16.5447619047619"
        },
        {
            "date": "2013-11-01",
            "value": "17.7485"
        },
        {
            "date": "2013-10-01",
            "value": "18.8126086956522"
        },
        {
            "date": "2013-09-01",
            "value": "17.619"
        },
        {
            "date": "2013-08-01",
            "value": "17.2440909090909"
        },
        {
            "date": "2013-07-01",
            "value": "17.0963636363636"
        },
        {
            "date": "2013-06-01",
            "value": "16.956"
        },
        {
            "date": "2013-05-01",
            "value": "17.4263636363636"
        },
        {
            "date": "2013-04-01",
            "value": "17.6622727272727"
        },
        {
            "date": "2013-03-01",
            "value": "18.339"
        },
        {
            "date": "2013-02-01",
            "value": "18.2078947368421"
        },
        {
            "date": "2013-01-01",
            "value": "18.8457142857143"
        },
        {
            "date": "2012-12-01",
            "value": "19.202"
        },
        {
            "date": "2012-11-01",
            "value": "19.3133333333333"
        },
        {
            "date": "2012-10-01",
            "value": "20.3886956521739"
        },
        {
            "date": "2012-09-01",
            "value": "20.2063157894737"
        },
        {
            "date": "2012-08-01",
            "value": "20.5613043478261"
        },
        {
            "date": "2012-07-01",
            "value": "22.7571428571429"
        },
        {
            "date": "2012-06-01",
            "value": "20.0980952380952"
        },
        {
            "date": "2012-05-01",
            "value": "20.2654545454545"
        },
        {
            "date": "2012-04-01",
            "value": "22.477"
        },
        {
            "date": "2012-03-01",
            "value": "23.7881818181818"
        },
        {
            "date": "2012-02-01",
            "value": "23.416"
        },
        {
            "date": "2012-01-01",
            "value": "24.0205"
        },
        {
            "date": "2011-12-01",
            "value": "23.4152380952381"
        },
        {
            "date": "2011-11-01",
            "value": "24.517619047619"
        },
        {
            "date": "2011-10-01",
            "value": "26.2985714285714"
        },
        {
            "date": "2011-09-01",
            "value": "26.6385714285714"
        },
        {
            "date": "2011-08-01",
            "value": "28.874347826087"
        },
        {
            "date": "2011-07-01",
            "value": "29.471"
        },
        {
            "date": "2011-06-01",
            "value": "24.9245454545455"
        },
        {
            "date": "2011-05-01",
            "value": "21.8409523809524"
        },
        {
            "date": "2011-04-01",
            "value": "23.903"
        },
        {
            "date": "2011-03-01",
            "value": "25.9"
        },
        {
            "date": "2011-02-01",
            "value": "29.3063157894737"
        },
        {
            "date": "2011-01-01",
            "value": "29.7368421052632"
        },
        {
            "date": "2010-12-01",
            "value": "28.0409090909091"
        },
        {
            "date": "2010-11-01",
            "value": "26.4204761904762"
        },
        {
            "date": "2010-10-01",
            "value": "26.9438095238095"
        },
        {
            "date": "2010-09-01",
            "value": "22.6695238095238"
        },
        {
            "date": "2010-08-01",
            "value": "18.6036363636364"
        },
        {
            "date": "2010-07-01",
            "value": "17.69"
        },
        {
            "date": "2010-06-01",
            "value": "16.3"
        },
        {
            "date": "2010-05-01",
            "value": "15.105"
        },
        {
            "date": "2010-04-01",
            "value": "16.8857142857143"
        },
        {
            "date": "2010-03-01",
            "value": "18.1478260869565"
        },
        {
            "date": "2010-02-01",
            "value": "21.9789473684211"
        },
        {
            "date": "2010-01-01",
            "value": "21.9052631578947"
        },
        {
            "date": "2009-12-01",
            "value": "24.9027272727273"
        },
        {
            "date": "2009-11-01",
            "value": "22.769"
        },
        {
            "date": "2009-10-01",
            "value": "23.1609090909091"
        },
        {
            "date": "2009-09-01",
            "value": "23.4514285714286"
        },
        {
            "date": "2009-08-01",
            "value": "21.72"
        },
        {
            "date": "2009-07-01",
            "value": "17.8045454545455"
        },
        {
            "date": "2009-06-01",
            "value": "16.5759090909091"
        },
        {
            "date": "2009-05-01",
            "value": "15.466"
        },
        {
            "date": "2009-04-01",
            "value": "13.4695238095238"
        },
        {
            "date": "2009-03-01",
            "value": "12.9281818181818"
        },
        {
            "date": "2009-02-01",
            "value": "13.3121052631579"
        },
        {
            "date": "2009-01-01",
            "value": "12.244"
        },
        {
            "date": "2008-12-01",
            "value": "11.32"
        },
        {
            "date": "2008-11-01",
            "value": "11.8284210526316"
        },
        {
            "date": "2008-10-01",
            "value": "11.7021739130435"
        },
        {
            "date": "2008-09-01",
            "value": "14.0204761904762"
        },
        {
            "date": "2008-08-01",
            "value": "13.6814285714286"
        },
        {
            "date": "2008-07-01",
            "value": "13.2077272727273"
        },
        {
            "date": "2008-06-01",
            "value": "12.0652380952381"
        },
        {
            "date": "2008-05-01",
            "value": "10.9347619047619"
        },
        {
            "date": "2008-04-01",
            "value": "12.5227272727273"
        },
        {
            "date": "2008-03-01",
            "value": "12.8765"
        },
        {
            "date": "2008-02-01",
            "value": "13.6075"
        },
        {
            "date": "2008-01-01",
            "value": "11.6595238095238"
        },
        {
            "date": "2007-12-01",
            "value": "10.4463157894737"
        },
        {
            "date": "2007-11-01",
            "value": "9.896"
        },
        {
            "date": "2007-10-01",
            "value": "9.99478260869565"
        },
        {
            "date": "2007-09-01",
            "value": "9.85105263157895"
        },
        {
            "date": "2007-08-01",
            "value": "9.61304347826087"
        },
        {
            "date": "2007-07-01",
            "value": "9.89571428571428"
        },
        {
            "date": "2007-06-01",
            "value": "9.26047619047619"
        },
        {
            "date": "2007-05-01",
            "value": "9.08636363636364"
        },
        {
            "date": "2007-04-01",
            "value": "9.594"
        },
        {
            "date": "2007-03-01",
            "value": "10.3668181818182"
        },
        {
            "date": "2007-02-01",
            "value": "10.5715789473684"
        },
        {
            "date": "2007-01-01",
            "value": "10.9035"
        },
        {
            "date": "2006-12-01",
            "value": "11.6965"
        },
        {
            "date": "2006-11-01",
            "value": "11.732"
        },
        {
            "date": "2006-10-01",
            "value": "11.5090909090909"
        },
        {
            "date": "2006-09-01",
            "value": "12.3135"
        },
        {
            "date": "2006-08-01",
            "value": "12.9795652173913"
        },
        {
            "date": "2006-07-01",
            "value": "15.857"
        },
        {
            "date": "2006-06-01",
            "value": "15.6890909090909"
        },
        {
            "date": "2006-05-01",
            "value": "16.9004545454545"
        },
        {
            "date": "2006-04-01",
            "value": "17.4626315789474"
        },
        {
            "date": "2006-03-01",
            "value": "17.0821739130435"
        },
        {
            "date": "2006-02-01",
            "value": "18.0526315789474"
        },
        {
            "date": "2006-01-01",
            "value": "16.187"
        },
        {
            "date": "2005-12-01",
            "value": "13.9271428571429"
        },
        {
            "date": "2005-11-01",
            "value": "11.808"
        },
        {
            "date": "2005-10-01",
            "value": "11.6128571428571"
        },
        {
            "date": "2005-09-01",
            "value": "10.8104761904762"
        },
        {
            "date": "2005-08-01",
            "value": "9.87521739130434"
        },
        {
            "date": "2005-07-01",
            "value": "9.5975"
        },
        {
            "date": "2005-06-01",
            "value": "9.03318181818182"
        },
        {
            "date": "2005-05-01",
            "value": "8.51142857142857"
        },
        {
            "date": "2005-04-01",
            "value": "8.52571428571428"
        },
        {
            "date": "2005-03-01",
            "value": "8.895"
        },
        {
            "date": "2005-02-01",
            "value": "9.32368421052632"
        },
        {
            "date": "2005-01-01",
            "value": "8.922"
        },
        {
            "date": "2004-12-01",
            "value": "8.79523809523809"
        },
        {
            "date": "2004-11-01",
            "value": "8.666"
        },
        {
            "date": "2004-10-01",
            "value": "8.96380952380952"
        },
        {
            "date": "2004-09-01",
            "value": "8.67428571428571"
        },
        {
            "date": "2004-08-01",
            "value": "7.87909090909091"
        },
        {
            "date": "2004-07-01",
            "value": "8.16571428571429"
        },
        {
            "date": "2004-06-01",
            "value": "7.51428571428571"
        },
        {
            "date": "2004-05-01",
            "value": "6.6225"
        },
        {
            "date": "2004-04-01",
            "value": "6.86047619047619"
        },
        {
            "date": "2004-03-01",
            "value": "6.49608695652174"
        },
        {
            "date": "2004-02-01",
            "value": "5.87315789473684"
        },
        {
            "date": "2004-01-01",
            "value": "6.03052631578947"
        },
        {
            "date": "2003-12-01",
            "value": "6.34380952380952"
        },
        {
            "date": "2003-11-01",
            "value": "6.19111111111111"
        },
        {
            "date": "2003-10-01",
            "value": "6.09826086956522"
        },
        {
            "date": "2003-09-01",
            "value": "6.27142857142857"
        },
        {
            "date": "2003-08-01",
            "value": "6.70904761904762"
        },
        {
            "date": "2003-07-01",
            "value": "6.73227272727273"
        },
        {
            "date": "2003-06-01",
            "value": "6.4047619047619"
        },
        {
            "date": "2003-05-01",
            "value": "7.01380952380952"
        },
        {
            "date": "2003-04-01",
            "value": "7.26190476190476"
        },
        {
            "date": "2003-03-01",
            "value": "7.84333333333334"
        },
        {
            "date": "2003-02-01",
            "value": "8.34833333333334"
        },
        {
            "date": "2003-01-01",
            "value": "7.89047619047619"
        },
        {
            "date": "2002-12-01",
            "value": "7.508"
        },
        {
            "date": "2002-11-01",
            "value": "7.29684210526316"
        },
        {
            "date": "2002-10-01",
            "value": "7.02"
        },
        {
            "date": "2002-09-01",
            "value": "6.4095"
        },
        {
            "date": "2002-08-01",
            "value": "5.85681818181818"
        },
        {
            "date": "2002-07-01",
            "value": "5.79476190476191"
        },
        {
            "date": "2002-06-01",
            "value": "5.246"
        },
        {
            "date": "2002-05-01",
            "value": "5.61181818181818"
        },
        {
            "date": "2002-04-01",
            "value": "5.17818181818182"
        },
        {
            "date": "2002-03-01",
            "value": "5.9245"
        },
        {
            "date": "2002-02-01",
            "value": "5.68315789473684"
        },
        {
            "date": "2002-01-01",
            "value": "7.31380952380952"
        },
        {
            "date": "2001-12-01",
            "value": "7.41"
        },
        {
            "date": "2001-11-01",
            "value": "7.278"
        },
        {
            "date": "2001-10-01",
            "value": "6.59608695652174"
        },
        {
            "date": "2001-09-01",
            "value": "7.16066666666667"
        },
        {
            "date": "2001-08-01",
            "value": "7.90434782608696"
        },
        {
            "date": "2001-07-01",
            "value": "8.53619047619048"
        },
        {
            "date": "2001-06-01",
            "value": "8.74285714285714"
        },
        {
            "date": "2001-05-01",
            "value": "8.95954545454546"
        },
        {
            "date": "2001-04-01",
            "value": "8.05210526315789"
        },
        {
            "date": "2001-03-01",
            "value": "8.71681818181818"
        },
        {
            "date": "2001-02-01",
            "value": "9.3625"
        },
        {
            "date": "2001-01-01",
            "value": "10.0595238095238"
        },
        {
            "date": "2000-12-01",
            "value": "9.7175"
        },
        {
            "date": "2000-11-01",
            "value": "9.5135"
        },
        {
            "date": "2000-10-01",
            "value": "10.4131818181818"
        },
        {
            "date": "2000-09-01",
            "value": "9.8575"
        },
        {
            "date": "2000-08-01",
            "value": "10.5978260869565"
        },
        {
            "date": "2000-07-01",
            "value": "9.64047619047619"
        },
        {
            "date": "2000-06-01",
            "value": "8.33454545454546"
        },
        {
            "date": "2000-05-01",
            "value": "6.78086956521739"
        },
        {
            "date": "2000-04-01",
            "value": "6.011"
        },
        {
            "date": "2000-03-01",
            "value": "5.1112"
        },
        {
            "date": "2000-02-01",
            "value": "5.351"
        },
        {
            "date": "2000-01-01",
            "value": "5.6295"
        },
        {
            "date": "1999-12-01",
            "value": "5.982"
        },
        {
            "date": "1999-11-01",
            "value": "6.505"
        },
        {
            "date": "1999-10-01",
            "value": "6.75428571428571"
        },
        {
            "date": "1999-09-01",
            "value": "6.67454545454545"
        },
        {
            "date": "1999-08-01",
            "value": "5.72347826086956"
        },
        {
            "date": "1999-07-01",
            "value": "5.37818181818182"
        },
        {
            "date": "1999-06-01",
            "value": "6.03863636363636"
        },
        {
            "date": "1999-05-01",
            "value": "5.7485"
        },
        {
            "date": "1999-04-01",
            "value": "5.42190476190476"
        },
        {
            "date": "1999-03-01",
            "value": "6.02521739130435"
        },
        {
            "date": "1999-02-01",
            "value": "6.8155"
        },
        {
            "date": "1999-01-01",
            "value": "8.10900020599365"
        },
        {
            "date": "1998-12-01",
            "value": "8.07681846618652"
        },
        {
            "date": "1998-11-01",
            "value": "8.06142902374268"
        },
        {
            "date": "1998-10-01",
            "value": "7.46272706985474"
        },
        {
            "date": "1998-09-01",
            "value": "7.22909069061279"
        },
        {
            "date": "1998-08-01",
            "value": "8.48238086700439"
        },
        {
            "date": "1998-07-01",
            "value": "8.6247615814209"
        },
        {
            "date": "1998-06-01",
            "value": "8.09863662719727"
        },
        {
            "date": "1998-05-01",
            "value": "9.22550010681152"
        },
        {
            "date": "1998-04-01",
            "value": "9.67681789398193"
        },
        {
            "date": "1998-03-01",
            "value": "9.84227275848389"
        },
        {
            "date": "1998-02-01",
            "value": "10.7194995880127"
        },
        {
            "date": "1998-01-01",
            "value": "11.518500328064"
        },
        {
            "date": "1997-12-01",
            "value": "12.3266668319702"
        },
        {
            "date": "1997-11-01",
            "value": "12.0120000839233"
        },
        {
            "date": "1997-10-01",
            "value": "11.3822727203369"
        },
        {
            "date": "1997-09-01",
            "value": "11.3313636779785"
        },
        {
            "date": "1997-08-01",
            "value": "11.7014284133911"
        },
        {
            "date": "1997-07-01",
            "value": "11.5721740722656"
        },
        {
            "date": "1997-06-01",
            "value": "11.4290475845337"
        },
        {
            "date": "1997-05-01",
            "value": "11.1281814575195"
        },
        {
            "date": "1997-04-01",
            "value": "11.2990913391113"
        },
        {
            "date": "1997-03-01",
            "value": "11.1409997940063"
        },
        {
            "date": "1997-02-01",
            "value": "10.8129997253418"
        },
        {
            "date": "1997-01-01",
            "value": "10.6919050216675"
        },
        {
            "date": "1996-12-01",
            "value": "10.7379999160767"
        },
        {
            "date": "1996-11-01",
            "value": "10.7247619628906"
        },
        {
            "date": "1996-10-01",
            "value": "11.1239128112793"
        },
        {
            "date": "1996-09-01",
            "value": "11.915714263916"
        },
        {
            "date": "1996-08-01",
            "value": "12.3663635253906"
        },
        {
            "date": "1996-07-01",
            "value": "12.8069562911987"
        },
        {
            "date": "1996-06-01",
            "value": "12.173999786377"
        },
        {
            "date": "1996-05-01",
            "value": "11.3777275085449"
        },
        {
            "date": "1996-04-01",
            "value": "11.9838094711304"
        },
        {
            "date": "1996-03-01",
            "value": "12.8990478515625"
        },
        {
            "date": "1996-02-01",
            "value": "12.8185710906982"
        },
        {
            "date": "1996-01-01",
            "value": "12.5336360931396"
        },
        {
            "date": "1995-12-01",
            "value": "12.3100004196167"
        },
        {
            "date": "1995-11-01",
            "value": "11.9840908050537"
        },
        {
            "date": "1995-10-01",
            "value": "11.837272644043"
        },
        {
            "date": "1995-09-01",
            "value": "11.6899995803833"
        },
        {
            "date": "1995-08-01",
            "value": "12.9808692932129"
        },
        {
            "date": "1995-07-01",
            "value": "13.5923805236816"
        },
        {
            "date": "1995-06-01",
            "value": "14.0204544067383"
        },
        {
            "date": "1995-05-01",
            "value": "13.5222730636597"
        },
        {
            "date": "1995-04-01",
            "value": "13.6052627563477"
        },
        {
            "date": "1995-03-01",
            "value": "14.5934782028198"
        },
        {
            "date": "1995-02-01",
            "value": "14.4075002670288"
        },
        {
            "date": "1995-01-01",
            "value": "14.7950000762939"
        },
        {
            "date": "1994-12-01",
            "value": "14.6747617721558"
        },
        {
            "date": "1994-11-01",
            "value": "13.9259090423584"
        },
        {
            "date": "1994-10-01",
            "value": "12.7580947875977"
        },
        {
            "date": "1994-09-01",
            "value": "12.594090461731"
        },
        {
            "date": "1994-08-01",
            "value": "12.0947828292847"
        },
        {
            "date": "1994-07-01",
            "value": "11.7742853164673"
        },
        {
            "date": "1994-06-01",
            "value": "12.0481815338135"
        },
        {
            "date": "1994-05-01",
            "value": "11.5799999237061"
        },
        {
            "date": "1994-04-01",
            "value": "11.013500213623"
        },
        {
            "date": "1994-03-01",
            "value": "11.7291307449341"
        },
        {
            "date": "1994-02-01",
            "value": "10.8225002288818"
        },
        {
            "date": "1994-01-01",
            "value": "10.2990474700928"
        },
        {
            "date": "1993-12-01",
            "value": "10.522608757019"
        },
        {
            "date": "1993-11-01",
            "value": "10.0740909576416"
        },
        {
            "date": "1993-10-01",
            "value": "10.2947616577148"
        },
        {
            "date": "1993-09-01",
            "value": "9.53590869903564"
        },
        {
            "date": "1993-08-01",
            "value": "9.34227275848389"
        },
        {
            "date": "1993-07-01",
            "value": "9.67500019073486"
        },
        {
            "date": "1993-06-01",
            "value": "10.3986368179321"
        },
        {
            "date": "1993-05-01",
            "value": "11.8280000686646"
        },
        {
            "date": "1993-04-01",
            "value": "11.1538095474243"
        },
        {
            "date": "1993-03-01",
            "value": "10.6247825622559"
        },
        {
            "date": "1993-02-01",
            "value": "8.55949974060059"
        },
        {
            "date": "1993-01-01",
            "value": "8.23799991607666"
        },
        {
            "date": "1992-12-01",
            "value": "8.14863681793213"
        },
        {
            "date": "1992-11-01",
            "value": "8.55952453613281"
        },
        {
            "date": "1992-10-01",
            "value": "8.7054557800293"
        },
        {
            "date": "1992-09-01",
            "value": "9.31227493286133"
        },
        {
            "date": "1992-08-01",
            "value": "9.86476135253906"
        },
        {
            "date": "1992-07-01",
            "value": "10.3121757507324"
        },
        {
            "date": "1992-06-01",
            "value": "10.347728729248"
        },
        {
            "date": "1992-05-01",
            "value": "9.61333465576172"
        },
        {
            "date": "1992-04-01",
            "value": "9.45571517944336"
        },
        {
            "date": "1992-03-01",
            "value": "8.25045394897461"
        },
        {
            "date": "1992-02-01",
            "value": "7.84299993515015"
        },
        {
            "date": "1992-01-01",
            "value": "8.42409133911133"
        },
        {
            "date": "1991-12-01",
            "value": "9.00190353393555"
        },
        {
            "date": "1991-11-01",
            "value": "8.63299942016602"
        },
        {
            "date": "1991-10-01",
            "value": "9.12588119506836"
        },
        {
            "date": "1991-09-01",
            "value": "9.29550170898438"
        },
        {
            "date": "1991-08-01",
            "value": "9.58829879760742"
        },
        {
            "date": "1991-07-01",
            "value": "10.3219985961914"
        },
        {
            "date": "1991-06-01",
            "value": "9.20000076293945"
        },
        {
            "date": "1991-05-01",
            "value": "7.58809995651245"
        },
        {
            "date": "1991-04-01",
            "value": "8.5099983215332"
        },
        {
            "date": "1991-03-01",
            "value": "9.13999938964844"
        },
        {
            "date": "1991-02-01",
            "value": "8.5099983215332"
        },
        {
            "date": "1991-01-01",
            "value": "8.79999923706055"
        },
        {
            "date": "1990-12-01",
            "value": "9.7400016784668"
        },
        {
            "date": "1990-11-01",
            "value": "10.060001373291"
        },
        {
            "date": "1990-10-01",
            "value": "9.38999938964844"
        },
        {
            "date": "1990-09-01",
            "value": "11.0200004577637"
        },
        {
            "date": "1990-08-01",
            "value": "10.9300003051758"
        },
        {
            "date": "1990-07-01",
            "value": "12"
        },
        {
            "date": "1990-06-01",
            "value": "12.9700012207031"
        },
        {
            "date": "1990-05-01",
            "value": "14.6199989318848"
        },
        {
            "date": "1990-04-01",
            "value": "15.2400016784668"
        },
        {
            "date": "1990-03-01",
            "value": "15.310001373291"
        },
        {
            "date": "1990-02-01",
            "value": "14.6500015258789"
        },
        {
            "date": "1990-01-01",
            "value": "14.2000007629395"
        },
        {
            "date": "1989-12-01",
            "value": "."
        },
        {
            "date": "1989-11-01",
            "value": "."
        },
        {
            "date": "1989-10-01",
            "value": "."
        },
        {
            "date": "1989-09-01",
            "value": "."
        },
        {
            "date": "1989-08-01",
            "value": "."
        },
        {
            "date": "1989-07-01",
            "value": "."
        },
        {
            "date": "1989-06-01",
            "value": "."
        },
        {
            "date": "1989-05-01",
            "value": "."
        },
        {
            "date": "1989-04-01",
            "value": "."
        },
        {
            "date": "1989-03-01",
            "value": "."
        },
        {
            "date": "1989-02-01",
            "value": "."
        },
        {
            "date": "1989-01-01",
            "value": "."
        },
        {
            "date": "1988-12-01",
            "value": "."
        },
        {
            "date": "1988-11-01",
            "value": "."
        },
        {
            "date": "1988-10-01",
            "value": "."
        },
        {
            "date": "1988-09-01",
            "value": "."
        },
        {
            "date": "1988-08-01",
            "value": "."
        },
        {
            "date": "1988-07-01",
            "value": "."
        },
        {
            "date": "1988-06-01",
            "value": "."
        },
        {
            "date": "1988-05-01",
            "value": "."
        },
        {
            "date": "1988-04-01",
            "value": "."
        },
        {
            "date": "1988-03-01",
            "value": "."
        },
        {
            "date": "1988-02-01",
            "value": "."
        },
        {
            "date": "1988-01-01",
            "value": "."
        },
        {
            "date": "1987-12-01",
            "value": "."
        },
        {
            "date": "1987-11-01",
            "value": "."
        },
        {
            "date": "1987-10-01",
            "value": "."
        },
        {
            "date": "1987-09-01",
            "value": "."
        },
        {
            "date": "1987-08-01",
            "value": "."
        },
        {
            "date": "1987-07-01",
            "value": "."
        },
        {
            "date": "1987-06-01",
            "value": "."
        },
        {
            "date": "1987-05-01",
            "value": "."
        },
        {
            "date": "1987-04-01",
            "value": "."
        },
        {
            "date": "1987-03-01",
            "value": "."
        },
        {
            "date": "1987-02-01",
            "value": "."
        },
        {
            "date": "1987-01-01",
            "value": "."
        },
        {
            "date": "1986-12-01",
            "value": "."
        },
        {
            "date": "1986-11-01",
            "value": "."
        },
        {
            "date": "1986-10-01",
            "value": "."
        },
        {
            "date": "1986-09-01",
            "value": "."
        },
        {
            "date": "1986-08-01",
            "value": "."
        },
        {
            "date": "1986-07-01",
            "value": "."
        },
        {
            "date": "1986-06-01",
            "value": "."
        },
        {
            "date": "1986-05-01",
            "value": "."
        },
        {
            "date": "1986-04-01",
            "value": "."
        },
        {
            "date": "1986-03-01",
            "value": "."
        },
        {
            "date": "1986-02-01",
            "value": "."
        },
        {
            "date": "1986-01-01",
            "value": "."
        },
        {
            "date": "1985-12-01",
            "value": "."
        },
        {
            "date": "1985-11-01",
            "value": "."
        },
        {
            "date": "1985-10-01",
            "value": "."
        },
        {
            "date": "1985-09-01",
            "value": "."
        },
        {
            "date": "1985-08-01",
            "value": "."
        },
        {
            "date": "1985-07-01",
            "value": "."
        },
        {
            "date": "1985-06-01",
            "value": "."
        },
        {
            "date": "1985-05-01",
            "value": "."
        },
        {
            "date": "1985-04-01",
            "value": "."
        },
        {
            "date": "1985-03-01",
            "value": "."
        },
        {
            "date": "1985-02-01",
            "value": "."
        },
        {
            "date": "1985-01-01",
            "value": "."
        },
        {
            "date": "1984-12-01",
            "value": "."
        },
        {
            "date": "1984-11-01",
            "value": "."
        },
        {
            "date": "1984-10-01",
            "value": "."
        },
        {
            "date": "1984-09-01",
            "value": "."
        },
        {
            "date": "1984-08-01",
            "value": "."
        },
        {
            "date": "1984-07-01",
            "value": "."
        },
        {
            "date": "1984-06-01",
            "value": "."
        },
        {
            "date": "1984-05-01",
            "value": "."
        },
        {
            "date": "1984-04-01",
            "value": "."
        },
        {
            "date": "1984-03-01",
            "value": "."
        },
        {
            "date": "1984-02-01",
            "value": "."
        },
        {
            "date": "1984-01-01",
            "value": "."
        },
        {
            "date": "1983-12-01",
            "value": "."
        },
        {
            "date": "1983-11-01",
            "value": "."
        },
        {
            "date": "1983-10-01",
            "value": "."
        },
        {
            "date": "1983-09-01",
            "value": "."
        },
        {
            "date": "1983-08-01",
            "value": "."
        },
        {
            "date": "1983-07-01",
            "value": "."
        },
        {
            "date": "1983-06-01",
            "value": "."
        },
        {
            "date": "1983-05-01",
            "value": "."
        },
        {
            "date": "1983-04-01",
            "value": "."
        },
        {
            "date": "1983-03-01",
            "value": "."
        },
        {
            "date": "1983-02-01",
            "value": "."
        },
        {
            "date": "1983-01-01",
            "value": "."
        },
        {
            "date": "1982-12-01",
            "value": "."
        },
        {
            "date": "1982-11-01",
            "value": "."
        },
        {
            "date": "1982-10-01",
            "value": "."
        },
        {
            "date": "1982-09-01",
            "value": "."
        },
        {
            "date": "1982-08-01",
            "value": "."
        },
        {
            "date": "1982-07-01",
            "value": "."
        },
        {
            "date": "1982-06-01",
            "value": "."
        },
        {
            "date": "1982-05-01",
            "value": "."
        },
        {
            "date": "1982-04-01",
            "value": "."
        },
        {
            "date": "1982-03-01",
            "value": "."
        },
        {
            "date": "1982-02-01",
            "value": "."
        },
        {
            "date": "1982-01-01",
            "value": "."
        },
        {
            "date": "1981-12-01",
            "value": "."
        },
        {
            "date": "1981-11-01",
            "value": "."
        },
        {
            "date": "1981-10-01",
            "value": "."
        },
        {
            "date": "1981-09-01",
            "value": "."
        },
        {
            "date": "1981-08-01",
            "value": "."
        },
        {
            "date": "1981-07-01",
            "value": "."
        },
        {
            "date": "1981-06-01",
            "value": "."
        },
        {
            "date": "1981-05-01",
            "value": "."
        },
        {
            "date": "1981-04-01",
            "value": "."
        },
        {
            "date": "1981-03-01",
            "value": "."
        },
        {
            "date": "1981-02-01",
            "value": "."
        },
        {
            "date": "1981-01-01",
            "value": "."
        },
        {
            "date": "1980-12-01",
            "value": "."
        },
        {
            "date": "1980-11-01",
            "value": "."
        },
        {
            "date": "1980-10-01",
            "value": "."
        },
        {
            "date": "1980-09-01",
            "value": "."
        },
        {
            "date": "1980-08-01",
            "value": "."
        },
        {
            "date": "1980-07-01",
            "value": "."
        },
        {
            "date": "1980-06-01",
            "value": "."
        },
        {
            "date": "1980-05-01",
            "value": "."
        },
        {
            "date": "1980-04-01",
            "value": "."
        },
        {
            "date": "1980-03-01",
            "value": "."
        },
        {
            "date": "1980-02-01",
            "value": "."
        },
        {
            "date": "1980-01-01",
            "value": "."
        }
    ]
}